[gd_scene load_steps=2 format=2]

[ext_resource path="res://Entities/Player/FSM/transitions/Wall_Jump/Wall_Jump.gd" type="Script" id=1]

[node name="Wall_Jump" type="Node"]
script = ExtResource( 1 )
path2SourceStates = [ NodePath("") ]
path2TargetState = null
intervalBetweenChecks = -1.0
