[gd_scene load_steps=2 format=2]

[ext_resource path="res://Entities/Player_Rework/FSM/transitions/Stand_Up/Stand_Up.gd" type="Script" id=1]

[node name="Stand_Up" type="Node"]
script = ExtResource( 1 )
path2SourceStates = [ NodePath("") ]
path2TargetState = null
intervalBetweenChecks = -1.0
